R Basic Functions
…
You may consider organizing an tidying you data-set. In this case you may rename some column names. For this task you may need to see the column name first using names(). function.

names(Sydneybeaches)

[1] "BeachId"                 "Region"                 
[3] "Council"                 "Site"                   
[5] "Longitude"               "Latitude"               
[7] "Date"                    "Enterococci (cfu/100ml)"

Function toupper(). is used to concert lowercase alphabet to uppercase and function(). tolower is the convert your alphabet to a lowercase. You may consider this functions to tidy your column names.

select_all(Sydneybeaches, toupper) 

# A tibble: 3,690 × 8
   BEACHID REGION  COUNCIL SITE  LONGITUDE LATITUDE DATE  ENTEROCOCCI (CFU/100…¹
     <dbl> <chr>   <chr>   <chr>     <dbl>    <dbl> <chr>                  <dbl>
 1      25 Sydney… Randwi… Clov…      151.    -33.9 02/0…                     19
 2      25 Sydney… Randwi… Clov…      151.    -33.9 06/0…                      3
 3      25 Sydney… Randwi… Clov…      151.    -33.9 12/0…                      2
 4      25 Sydney… Randwi… Clov…      151.    -33.9 18/0…                     13
 5      25 Sydney… Randwi… Clov…      151.    -33.9 30/0…                      8
 6      25 Sydney… Randwi… Clov…      151.    -33.9 05/0…                      7
 7      25 Sydney… Randwi… Clov…      151.    -33.9 11/0…                     11
 8      25 Sydney… Randwi… Clov…      151.    -33.9 23/0…                     97
 9      25 Sydney… Randwi… Clov…      151.    -33.9 07/0…                      3
10      25 Sydney… Randwi… Clov…      151.    -33.9 25/0…                      0
# ℹ 3,680 more rows
# ℹ abbreviated name: ¹​`ENTEROCOCCI (CFU/100ML)`

select_all(Sydneybeaches, tolower)

# A tibble: 3,690 × 8
   beachid region  council site  longitude latitude date  enterococci (cfu/100…¹
     <dbl> <chr>   <chr>   <chr>     <dbl>    <dbl> <chr>                  <dbl>
 1      25 Sydney… Randwi… Clov…      151.    -33.9 02/0…                     19
 2      25 Sydney… Randwi… Clov…      151.    -33.9 06/0…                      3
 3      25 Sydney… Randwi… Clov…      151.    -33.9 12/0…                      2
 4      25 Sydney… Randwi… Clov…      151.    -33.9 18/0…                     13
 5      25 Sydney… Randwi… Clov…      151.    -33.9 30/0…                      8
 6      25 Sydney… Randwi… Clov…      151.    -33.9 05/0…                      7
 7      25 Sydney… Randwi… Clov…      151.    -33.9 11/0…                     11
 8      25 Sydney… Randwi… Clov…      151.    -33.9 23/0…                     97
 9      25 Sydney… Randwi… Clov…      151.    -33.9 07/0…                      3
10      25 Sydney… Randwi… Clov…      151.    -33.9 25/0…                      0
# ℹ 3,680 more rows
# ℹ abbreviated name: ¹​`enterococci (cfu/100ml)`
…
library(janitor)

Sydneybeaches <- clean_names(Sydneybeaches)

In addition, you can use rename(). function from the dplyr package to rename your specific column typing your desired name, following by the old name.

Sydneybeaches <- rename(Sydneybeaches, beachbugs = enterococci_cfu_100ml)

Select function

You can as well select some columns to work with using select(). function, which is part of “dplyr” package.

select(Sydneybeaches, region, council, site)

# A tibble: 3,690 × 3
   region                    council          site          
   <chr>                     <chr>            <chr>         
 1 Sydney City Ocean Beaches Randwick Council Clovelly Beach
 2 Sydney City Ocean Beaches Randwick Council Clovelly Beach
 3 Sydney City Ocean Beaches Randwick Council Clovelly Beach
 4 Sydney City Ocean Beaches Randwick Council Clovelly Beach
 5 Sydney City Ocean Beaches Randwick Council Clovelly Beach
 6 Sydney City Ocean Beaches Randwick Council Clovelly Beach
 7 Sydney City Ocean Beaches Randwick Council Clovelly Beach
 8 Sydney City Ocean Beaches Randwick Council Clovelly Beach
 9 Sydney City Ocean Beaches Randwick Council Clovelly Beach
10 Sydney City Ocean Beaches Randwick Council Clovelly Beach
# ℹ 3,680 more rows

To rearrange your columns you may consider using select(). function and include everything(). function in it. The latter is meant to put all other columns after the first your selected columns.

select(Sydneybeaches, council, region, everything())

# A tibble: 3,690 × 8
   council          region     beach_id site  longitude latitude date  beachbugs
   <chr>            <chr>         <dbl> <chr>     <dbl>    <dbl> <chr>     <dbl>
 1 Randwick Council Sydney Ci…       25 Clov…      151.    -33.9 02/0…        19
 2 Randwick Council Sydney Ci…       25 Clov…      151.    -33.9 06/0…         3
 3 Randwick Council Sydney Ci…       25 Clov…      151.    -33.9 12/0…         2
 4 Randwick Council Sydney Ci…       25 Clov…      151.    -33.9 18/0…        13
 5 Randwick Council Sydney Ci…       25 Clov…      151.    -33.9 30/0…         8
 6 Randwick Council Sydney Ci…       25 Clov…      151.    -33.9 05/0…         7
 7 Randwick Council Sydney Ci…       25 Clov…      151.    -33.9 11/0…        11
 8 Randwick Council Sydney Ci…       25 Clov…      151.    -33.9 23/0…        97
 9 Randwick Council Sydney Ci…       25 Clov…      151.    -33.9 07/0…         3
10 Randwick Council Sydney Ci…       25 Clov…      151.    -33.9 25/0…         0
# ℹ 3,680 more rows

Of note to save the outcome of your work, you should assign it to a variable name using this sign “<-”.

outcomebeaches <- select(Sydneybeaches, council, region, site)

Arrange function

you can also arrange rows desendeningly using desc() or sign “-” before the preferable column name. operator or ascendingly in arrange(). function.

arrange(Sydneybeaches,desc(beachbugs)) 

# A tibble: 3,690 × 8
   beach_id region              council site  longitude latitude date  beachbugs
      <dbl> <chr>               <chr>   <chr>     <dbl>    <dbl> <chr>     <dbl>
 1     29   Sydney City Ocean … Randwi… Litt…      151.    -34.0 30/0…      4900
 2     28   Sydney City Ocean … Randwi… Mala…      151.    -34.0 30/0…      2500
 3     27   Sydney City Ocean … Randwi… Maro…      151.    -33.9 31/1…      2100
 4     29   Sydney City Ocean … Randwi… Litt…      151.    -34.0 09/0…      2100
 5     27.3 Sydney City Ocean … Randwi… Sout…      151.    -34.0 08/0…      1700
 6     27.3 Sydney City Ocean … Randwi… Sout…      151.    -34.0 03/0…      1600
 7     27.3 Sydney City Ocean … Randwi… Sout…      151.    -34.0 09/0…      1600
 8     28   Sydney City Ocean … Randwi… Mala…      151.    -34.0 31/1…      1500
 9     25.9 Sydney City Ocean … Randwi… Gord…      151.    -33.9 22/0…      1500
10     28   Sydney City Ocean … Randwi… Mala…      151.    -34.0 16/1…      1400
# ℹ 3,680 more rows

arrange(Sydneybeaches,-beachbugs) 

# A tibble: 3,690 × 8
   beach_id region              council site  longitude latitude date  beachbugs
      <dbl> <chr>               <chr>   <chr>     <dbl>    <dbl> <chr>     <dbl>
 1     29   Sydney City Ocean … Randwi… Litt…      151.    -34.0 30/0…      4900
 2     28   Sydney City Ocean … Randwi… Mala…      151.    -34.0 30/0…      2500
 3     27   Sydney City Ocean … Randwi… Maro…      151.    -33.9 31/1…      2100
 4     29   Sydney City Ocean … Randwi… Litt…      151.    -34.0 09/0…      2100
 5     27.3 Sydney City Ocean … Randwi… Sout…      151.    -34.0 08/0…      1700
 6     27.3 Sydney City Ocean … Randwi… Sout…      151.    -34.0 03/0…      1600
 7     27.3 Sydney City Ocean … Randwi… Sout…      151.    -34.0 09/0…      1600
 8     28   Sydney City Ocean … Randwi… Mala…      151.    -34.0 31/1…      1500
 9     25.9 Sydney City Ocean … Randwi… Gord…      151.    -33.9 22/0…      1500
10     28   Sydney City Ocean … Randwi… Mala…      151.    -34.0 16/1…      1400
# ℹ 3,680 more rows

arrange(Sydneybeaches,beachbugs)

# A tibble: 3,690 × 8
   beach_id region              council site  longitude latitude date  beachbugs
      <dbl> <chr>               <chr>   <chr>     <dbl>    <dbl> <chr>     <dbl>
 1       25 Sydney City Ocean … Randwi… Clov…      151.    -33.9 25/0…         0
 2       25 Sydney City Ocean … Randwi… Clov…      151.    -33.9 12/0…         0
 3       25 Sydney City Ocean … Randwi… Clov…      151.    -33.9 31/0…         0
 4       25 Sydney City Ocean … Randwi… Clov…      151.    -33.9 22/0…         0
 5       25 Sydney City Ocean … Randwi… Clov…      151.    -33.9 29/0…         0
 6       25 Sydney City Ocean … Randwi… Clov…      151.    -33.9 24/0…         0
 7       25 Sydney City Ocean … Randwi… Clov…      151.    -33.9 13/0…         0
 8       25 Sydney City Ocean … Randwi… Clov…      151.    -33.9 19/0…         0
 9       25 Sydney City Ocean … Randwi… Clov…      151.    -33.9 07/0…         0
10       25 Sydney City Ocean … Randwi… Clov…      151.    -33.9 14/0…         0
# ℹ 3,680 more rows

Pipe operator %>%

This operator is used to link functions to your data set. In this case you have not to type your data name at the beginning of any function.

Sydneybeaches %>%   select(council, region, beachbugs) %>%   
  arrange(-beachbugs) 

# A tibble: 3,690 × 3
   council          region                    beachbugs
   <chr>            <chr>                         <dbl>
 1 Randwick Council Sydney City Ocean Beaches      4900
 2 Randwick Council Sydney City Ocean Beaches      2500
 3 Randwick Council Sydney City Ocean Beaches      2100
 4 Randwick Council Sydney City Ocean Beaches      2100
 5 Randwick Council Sydney City Ocean Beaches      1700
 6 Randwick Council Sydney City Ocean Beaches      1600
 7 Randwick Council Sydney City Ocean Beaches      1600
 8 Randwick Council Sydney City Ocean Beaches      1500
 9 Randwick Council Sydney City Ocean Beaches      1500
10 Randwick Council Sydney City Ocean Beaches      1400
# ℹ 3,680 more rows
…
In this example you can see that there is a group_by(). function which is used to gather you data in groups based on your specific groups you have in your data-set. Moreover, you can use arrange(). function with your new variable you make in your summarize(). function.

Separate()., unite(). and mutate(). functions

you can use separate(). function to separate a column into new columns. a clear example is date that you can separate it into day, month and year. remove = False means that you want to keep the old column in your data-set as well.

Sydneybeaches <- Sydneybeaches %>%
  separate(date, c("day", "month", "year"), remove = FALSE)

on the other hand, if you want to make a column from multiple separated columns, you can use unite(). function.

Sydneybeaches %>%
  unite(council_site, c("council", "site"), remove = FALSE)

# A tibble: 3,690 × 12
   beach_id region     council_site council site  longitude latitude date  day  
      <dbl> <chr>      <chr>        <chr>   <chr>     <dbl>    <dbl> <chr> <chr>
 1       25 Sydney Ci… Randwick Co… Randwi… Clov…      151.    -33.9 02/0… 02   
 2       25 Sydney Ci… Randwick Co… Randwi… Clov…      151.    -33.9 06/0… 06   
 3       25 Sydney Ci… Randwick Co… Randwi… Clov…      151.    -33.9 12/0… 12   
 4       25 Sydney Ci… Randwick Co… Randwi… Clov…      151.    -33.9 18/0… 18   
 5       25 Sydney Ci… Randwick Co… Randwi… Clov…      151.    -33.9 30/0… 30   
 6       25 Sydney Ci… Randwick Co… Randwi… Clov…      151.    -33.9 05/0… 05   
 7       25 Sydney Ci… Randwick Co… Randwi… Clov…      151.    -33.9 11/0… 11   
 8       25 Sydney Ci… Randwick Co… Randwi… Clov…      151.    -33.9 23/0… 23   
 9       25 Sydney Ci… Randwick Co… Randwi… Clov…      151.    -33.9 07/0… 07   
10       25 Sydney Ci… Randwick Co… Randwi… Clov…      151.    -33.9 25/0… 25   
# ℹ 3,680 more rows
# ℹ 3 more variables: month <chr>, year <chr>, beachbugs <dbl>
…
Sydneybeaches %>%
  na.omit() %>%
  summarize(mean(beachbugs))

# A tibble: 1 × 1
  `mean(beachbugs)`
              <dbl>
1              33.9

Sydneybeaches %>%
  na.omit() %>%
  mutate(buggier = beachbugs > mean(beachbugs))

# A tibble: 3,661 × 12
   beach_id region      council site  longitude latitude date  day   month year 
      <dbl> <chr>       <chr>   <chr>     <dbl>    <dbl> <chr> <chr> <chr> <chr>
 1       25 Sydney Cit… Randwi… Clov…      151.    -33.9 02/0… 02    01    2013 
 2       25 Sydney Cit… Randwi… Clov…      151.    -33.9 06/0… 06    01    2013 
 3       25 Sydney Cit… Randwi… Clov…      151.    -33.9 12/0… 12    01    2013 
 4       25 Sydney Cit… Randwi… Clov…      151.    -33.9 18/0… 18    01    2013 
 5       25 Sydney Cit… Randwi… Clov…      151.    -33.9 30/0… 30    01    2013 
 6       25 Sydney Cit… Randwi… Clov…      151.    -33.9 05/0… 05    02    2013 
 7       25 Sydney Cit… Randwi… Clov…      151.    -33.9 11/0… 11    02    2013 
 8       25 Sydney Cit… Randwi… Clov…      151.    -33.9 23/0… 23    02    2013 
 9       25 Sydney Cit… Randwi… Clov…      151.    -33.9 07/0… 07    03    2013 
10       25 Sydney Cit… Randwi… Clov…      151.    -33.9 25/0… 25    03    2013 
# ℹ 3,651 more rows
# ℹ 2 more variables: beachbugs <dbl>, buggier <lgl>

Sydneybeaches %>%
  na.omit() %>%
  mutate(diffinbugs = beachbugs-lag(beachbugs))

# A tibble: 3,661 × 12
   beach_id region      council site  longitude latitude date  day   month year 
      <dbl> <chr>       <chr>   <chr>     <dbl>    <dbl> <chr> <chr> <chr> <chr>
 1       25 Sydney Cit… Randwi… Clov…      151.    -33.9 02/0… 02    01    2013 
 2       25 Sydney Cit… Randwi… Clov…      151.    -33.9 06/0… 06    01    2013 
 3       25 Sydney Cit… Randwi… Clov…      151.    -33.9 12/0… 12    01    2013 
 4       25 Sydney Cit… Randwi… Clov…      151.    -33.9 18/0… 18    01    2013 
 5       25 Sydney Cit… Randwi… Clov…      151.    -33.9 30/0… 30    01    2013 
 6       25 Sydney Cit… Randwi… Clov…      151.    -33.9 05/0… 05    02    2013 
 7       25 Sydney Cit… Randwi… Clov…      151.    -33.9 11/0… 11    02    2013 
 8       25 Sydney Cit… Randwi… Clov…      151.    -33.9 23/0… 23    02    2013 
 9       25 Sydney Cit… Randwi… Clov…      151.    -33.9 07/0… 07    03    2013 
10       25 Sydney Cit… Randwi… Clov…      151.    -33.9 25/0… 25    03    2013 
# ℹ 3,651 more rows
# ℹ 2 more variables: beachbugs <dbl>, diffinbugs <dbl>
…
